; Engine configuration file.
; It's best edited using the editor UI and not directly,
; since the parameters that go here are not all obvious.
;
; Format:
;   [section] ; section goes between []
;   param=value ; assign values to parameters

config_version=4

_global_script_classes=[  ]
_global_script_class_icons={

}

[application]

config/name="Hide 'n Glitch"
config/description="WIP 2d multiplayer platformer"
run/main_scene="res://scenes/Map.tscn"
config/icon="res://icon.png"

[debug]

settings/stdout/verbose_stdout=true
gdscript/warnings/treat_warnings_as_errors=true
gdscript/completion/autocomplete_setters_and_getters=true
gdscript/warnings/unused_argument=false
gdscript/warnings/unsafe_property_access=true
gdscript/warnings/unsafe_method_access=true
gdscript/warnings/unsafe_cast=true
gdscript/warnings/unsafe_call_argument=true

[display]

window/size/width=1920
window/size/height=1080
window/size/test_width=1280
window/size/test_height=720
window/dpi/allow_hidpi=true
window/energy_saving/keep_screen_on=false
window/stretch/mode="2d"
window/stretch/aspect="keep"

[gui]

theme/use_hidpi=true

[physics]

common/physics_fps=144

[rendering]

quality/intended_usage/framebuffer_allocation=0
quality/intended_usage/framebuffer_allocation.mobile=1
quality/2d/use_pixel_snap=true
environment/default_clear_color=Color( 0, 0, 0, 1 )
environment/default_environment="res://default_env.tres"
