[gd_resource type="ParticlesMaterial" format=2]

[resource]
emission_shape = 1
emission_sphere_radius = 1.0
flag_disable_z = true
spread = 180.0
gravity = Vector3( 0, 0, 0 )
angular_velocity = 1.05
orbit_velocity = 0.0
orbit_velocity_random = 0.0
radial_accel = 80.0
damping = 62.74
