[gd_scene load_steps=4 format=2]

[ext_resource path="res://assets/lights/light-mask.png" type="Texture" id=1]

[sub_resource type="PhysicsMaterial" id=1]
friction = 0.8
rough = true
absorbent = true

[sub_resource type="ConvexPolygonShape2D" id=2]
points = PoolVector2Array( 9.239, -3.827, 3.827, -9.239, -3.827, -9.239, -9.239, -3.827, -9.239, 3.827, -3.827, 9.239, 3.827, 9.239, 9.239, 3.827 )

[node name="Octagon" type="RigidBody2D"]
mass = 2.0
physics_material_override = SubResource( 1 )
gravity_scale = 10.0
contacts_reported = 1
contact_monitor = true

[node name="Collision" type="CollisionShape2D" parent="."]
shape = SubResource( 2 )

[node name="Shape" type="Polygon2D" parent="."]
antialiased = true
polygon = PoolVector2Array( 9.239, -3.827, 3.827, -9.239, -3.827, -9.239, -9.239, -3.827, -9.239, 3.827, -3.827, 9.239, 3.827, 9.239, 9.239, 3.827 )

[node name="Light" type="Light2D" parent="."]
light_mask = 3
scale = Vector2( 7.5, 7.5 )
texture = ExtResource( 1 )
mode = 3
shadow_enabled = true

[node name="Camera" type="Camera2D" parent="."]
current = true
zoom = Vector2( 0.333, 0.333 )
limit_left = 0
limit_top = 0
limit_right = 1920
limit_bottom = 1080
limit_smoothed = true
smoothing_enabled = true
drag_margin_left = 0.05
drag_margin_top = 0.05
drag_margin_right = 0.05
drag_margin_bottom = 0.05

[node name="AirTimer" type="Timer" parent="."]
wait_time = 0.15
one_shot = true

[node name="Tween" type="Tween" parent="."]
